[ 2779.823186] 29 jiffies for addrA:b1348000 addrB:b13480a0 and garbage:b134bff0
[ 2779.823303] addr1: b13480b0  addr2: b134bff0
[ 2780.103472] 28 jiffies for addrA:b1348000 addrB:b13480b0 and garbage:b134bff0
[ 2780.103573] addr1: b13480c0  addr2: b134bff0
[ 2780.383600] 28 jiffies for addrA:b1348000 addrB:b13480c0 and garbage:b134bff0
[ 2780.383692] addr1: b13480d0  addr2: b134bff0
[ 2780.663721] 28 jiffies for addrA:b1348000 addrB:b13480d0 and garbage:b134bff0
[ 2780.663809] addr1: b13480e0  addr2: b134bff0
[ 2780.943946] 28 jiffies for addrA:b1348000 addrB:b13480e0 and garbage:b134bff0
[ 2780.944054] addr1: b13480f0  addr2: b134bff0
[ 2781.224320] 28 jiffies for addrA:b1348000 addrB:b13480f0 and garbage:b134bff0
[ 2781.224435] addr1: b1348100  addr2: b134bff0
[ 2781.505732] 28 jiffies for addrA:b1348000 addrB:b1348100 and garbage:b134bff0
[ 2781.505846] addr1: b1348110  addr2: b134bff0
[ 2781.788702] 28 jiffies for addrA:b1348000 addrB:b1348110 and garbage:b134bff0
[ 2781.788815] addr1: b1348120  addr2: b134bff0
[ 2782.069071] 28 jiffies for addrA:b1348000 addrB:b1348120 and garbage:b134bff0
[ 2782.069183] addr1: b1348130  addr2: b134bff0
[ 2782.349255] 28 jiffies for addrA:b1348000 addrB:b1348130 and garbage:b134bff0
[ 2782.349354] addr1: b1348140  addr2: b134bff0
[ 2782.629618] 28 jiffies for addrA:b1348000 addrB:b1348140 and garbage:b134bff0
[ 2782.629734] addr1: b1348150  addr2: b134bff0
[ 2782.910346] 28 jiffies for addrA:b1348000 addrB:b1348150 and garbage:b134bff0
[ 2782.910466] addr1: b1348160  addr2: b134bff0
[ 2783.190769] 28 jiffies for addrA:b1348000 addrB:b1348160 and garbage:b134bff0
[ 2783.190880] addr1: b1348170  addr2: b134bff0
[ 2783.470937] 28 jiffies for addrA:b1348000 addrB:b1348170 and garbage:b134bff0
[ 2783.471049] addr1: b1348180  addr2: b134bff0
[ 2783.751080] 28 jiffies for addrA:b1348000 addrB:b1348180 and garbage:b134bff0
[ 2783.751163] addr1: b1348190  addr2: b134bff0
[ 2784.031377] 28 jiffies for addrA:b1348000 addrB:b1348190 and garbage:b134bff0
[ 2784.031494] addr1: b13481a0  addr2: b134bff0
[ 2784.311562] 28 jiffies for addrA:b1348000 addrB:b13481a0 and garbage:b134bff0
[ 2784.311649] addr1: b13481b0  addr2: b134bff0
[ 2784.591693] 28 jiffies for addrA:b1348000 addrB:b13481b0 and garbage:b134bff0
[ 2784.591774] addr1: b13481c0  addr2: b134bff0
[ 2784.874367] 28 jiffies for addrA:b1348000 addrB:b13481c0 and garbage:b134bff0
[ 2784.874480] addr1: b13481d0  addr2: b134bff0
[ 2785.155038] 28 jiffies for addrA:b1348000 addrB:b13481d0 and garbage:b134bff0
[ 2785.155149] addr1: b13481e0  addr2: b134bff0
[ 2785.435266] 28 jiffies for addrA:b1348000 addrB:b13481e0 and garbage:b134bff0
[ 2785.435371] addr1: b13481f0  addr2: b134bff0
[ 2785.715569] 28 jiffies for addrA:b1348000 addrB:b13481f0 and garbage:b134bff0
[ 2785.715686] addr1: b1348200  addr2: b134bff0
[ 2785.995831] 28 jiffies for addrA:b1348000 addrB:b1348200 and garbage:b134bff0
[ 2785.995933] addr1: b1348210  addr2: b134bff0
[ 2786.276033] 28 jiffies for addrA:b1348000 addrB:b1348210 and garbage:b134bff0
[ 2786.276123] addr1: b1348220  addr2: b134bff0
[ 2786.556062] 28 jiffies for addrA:b1348000 addrB:b1348220 and garbage:b134bff0
[ 2786.556145] addr1: b1348230  addr2: b134bff0
[ 2786.836149] 28 jiffies for addrA:b1348000 addrB:b1348230 and garbage:b134bff0
[ 2786.836233] addr1: b1348240  addr2: b134bff0
[ 2787.116941] 28 jiffies for addrA:b1348000 addrB:b1348240 and garbage:b134bff0
[ 2787.117053] addr1: b1348250  addr2: b134bff0
[ 2787.397122] 28 jiffies for addrA:b1348000 addrB:b1348250 and garbage:b134bff0
[ 2787.397228] addr1: b1348260  addr2: b134bff0
[ 2787.677259] 28 jiffies for addrA:b1348000 addrB:b1348260 and garbage:b134bff0
[ 2787.677348] addr1: b1348270  addr2: b134bff0
[ 2787.960004] 28 jiffies for addrA:b1348000 addrB:b1348270 and garbage:b134bff0
[ 2787.960116] addr1: b1348280  addr2: b134bff0
[ 2788.240153] 28 jiffies for addrA:b1348000 addrB:b1348280 and garbage:b134bff0
[ 2788.240242] addr1: b1348290  addr2: b134bff0
[ 2788.520252] 28 jiffies for addrA:b1348000 addrB:b1348290 and garbage:b134bff0
[ 2788.520334] addr1: b13482a0  addr2: b134bff0
[ 2788.800563] 28 jiffies for addrA:b1348000 addrB:b13482a0 and garbage:b134bff0
[ 2788.800675] addr1: b13482b0  addr2: b134bff0
[ 2789.081184] 29 jiffies for addrA:b1348000 addrB:b13482b0 and garbage:b134bff0
[ 2789.081293] addr1: b13482c0  addr2: b134bff0
[ 2789.362156] 28 jiffies for addrA:b1348000 addrB:b13482c0 and garbage:b134bff0
[ 2789.362268] addr1: b13482d0  addr2: b134bff0
[ 2789.642351] 28 jiffies for addrA:b1348000 addrB:b13482d0 and garbage:b134bff0
[ 2789.642444] addr1: b13482e0  addr2: b134bff0
[ 2789.922414] 28 jiffies for addrA:b1348000 addrB:b13482e0 and garbage:b134bff0
[ 2789.922498] addr1: b13482f0  addr2: b134bff0
[ 2790.202760] 28 jiffies for addrA:b1348000 addrB:b13482f0 and garbage:b134bff0
[ 2790.202873] addr1: b1348300  addr2: b134bff0
[ 2790.482954] 28 jiffies for addrA:b1348000 addrB:b1348300 and garbage:b134bff0
[ 2790.483042] addr1: b1348310  addr2: b134bff0
[ 2790.764627] 28 jiffies for addrA:b1348000 addrB:b1348310 and garbage:b134bff0
[ 2790.764750] addr1: b1348320  addr2: b134bff0
[ 2791.046009] 28 jiffies for addrA:b1348000 addrB:b1348320 and garbage:b134bff0
[ 2791.046126] addr1: b1348330  addr2: b134bff0
[ 2791.326252] 28 jiffies for addrA:b1348000 addrB:b1348330 and garbage:b134bff0
[ 2791.326361] addr1: b1348340  addr2: b134bff0
[ 2791.606707] 28 jiffies for addrA:b1348000 addrB:b1348340 and garbage:b134bff0
[ 2791.606836] addr1: b1348350  addr2: b134bff0
[ 2791.887036] 28 jiffies for addrA:b1348000 addrB:b1348350 and garbage:b134bff0
[ 2791.887139] addr1: b1348360  addr2: b134bff0
[ 2792.167730] 28 jiffies for addrA:b1348000 addrB:b1348360 and garbage:b134bff0
[ 2792.167841] addr1: b1348370  addr2: b134bff0
[ 2792.447887] 28 jiffies for addrA:b1348000 addrB:b1348370 and garbage:b134bff0
[ 2792.447980] addr1: b1348380  addr2: b134bff0
[ 2792.728007] 28 jiffies for addrA:b1348000 addrB:b1348380 and garbage:b134bff0
[ 2792.728105] addr1: b1348390  addr2: b134bff0
[ 2793.008179] 28 jiffies for addrA:b1348000 addrB:b1348390 and garbage:b134bff0
[ 2793.008278] addr1: b13483a0  addr2: b134bff0
[ 2793.288484] 28 jiffies for addrA:b1348000 addrB:b13483a0 and garbage:b134bff0
[ 2793.288602] addr1: b13483b0  addr2: b134bff0
[ 2793.568645] 28 jiffies for addrA:b1348000 addrB:b13483b0 and garbage:b134bff0
[ 2793.568742] addr1: b13483c0  addr2: b134bff0
[ 2793.851327] 29 jiffies for addrA:b1348000 addrB:b13483c0 and garbage:b134bff0
[ 2793.851439] addr1: b13483d0  addr2: b134bff0
[ 2794.131490] 28 jiffies for addrA:b1348000 addrB:b13483d0 and garbage:b134bff0
[ 2794.131580] addr1: b13483e0  addr2: b134bff0
[ 2794.411578] 28 jiffies for addrA:b1348000 addrB:b13483e0 and garbage:b134bff0
[ 2794.411657] addr1: b13483f0  addr2: b134bff0
[ 2794.691878] 28 jiffies for addrA:b1348000 addrB:b13483f0 and garbage:b134bff0
[ 2794.691993] addr1: b1348400  addr2: b134bff0
[ 2794.972090] 28 jiffies for addrA:b1348000 addrB:b1348400 and garbage:b134bff0
[ 2794.972188] addr1: b1348410  addr2: b134bff0
[ 2795.252231] 28 jiffies for addrA:b1348000 addrB:b1348410 and garbage:b134bff0
[ 2795.252317] addr1: b1348420  addr2: b134bff0
[ 2795.532325] 28 jiffies for addrA:b1348000 addrB:b1348420 and garbage:b134bff0
[ 2795.532409] addr1: b1348430  addr2: b134bff0
[ 2795.812379] 28 jiffies for addrA:b1348000 addrB:b1348430 and garbage:b134bff0
[ 2795.812458] addr1: b1348440  addr2: b134bff0
[ 2796.093162] 28 jiffies for addrA:b1348000 addrB:b1348440 and garbage:b134bff0
[ 2796.093279] addr1: b1348450  addr2: b134bff0
[ 2796.373323] 28 jiffies for addrA:b1348000 addrB:b1348450 and garbage:b134bff0
[ 2796.373410] addr1: b1348460  addr2: b134bff0
[ 2796.653380] 28 jiffies for addrA:b1348000 addrB:b1348460 and garbage:b134bff0
[ 2796.653461] addr1: b1348470  addr2: b134bff0
[ 2796.936063] 28 jiffies for addrA:b1348000 addrB:b1348470 and garbage:b134bff0
[ 2796.936174] addr1: b1348480  addr2: b134bff0
[ 2797.216271] 28 jiffies for addrA:b1348000 addrB:b1348480 and garbage:b134bff0
[ 2797.216370] addr1: b1348490  addr2: b134bff0
[ 2797.496372] 28 jiffies for addrA:b1348000 addrB:b1348490 and garbage:b134bff0
[ 2797.496455] addr1: b13484a0  addr2: b134bff0
[ 2797.776681] 28 jiffies for addrA:b1348000 addrB:b13484a0 and garbage:b134bff0
[ 2797.776796] addr1: b13484b0  addr2: b134bff0
[ 2798.056932] 28 jiffies for addrA:b1348000 addrB:b13484b0 and garbage:b134bff0
[ 2798.057030] addr1: b13484c0  addr2: b134bff0
[ 2798.337034] 28 jiffies for addrA:b1348000 addrB:b13484c0 and garbage:b134bff0
[ 2798.337118] addr1: b13484d0  addr2: b134bff0
[ 2798.617088] 28 jiffies for addrA:b1348000 addrB:b13484d0 and garbage:b134bff0
[ 2798.617173] addr1: b13484e0  addr2: b134bff0
[ 2798.897171] 28 jiffies for addrA:b1348000 addrB:b13484e0 and garbage:b134bff0
[ 2798.897252] addr1: b13484f0  addr2: b134bff0
[ 2799.177458] 28 jiffies for addrA:b1348000 addrB:b13484f0 and garbage:b134bff0
[ 2799.177578] addr1: b1348500  addr2: b134bff0
[ 2799.457633] 28 jiffies for addrA:b1348000 addrB:b1348500 and garbage:b134bff0
[ 2799.457727] addr1: b1348510  addr2: b134bff0
[ 2799.737758] 28 jiffies for addrA:b1348000 addrB:b1348510 and garbage:b134bff0
[ 2799.737841] addr1: b1348520  addr2: b134bff0
[ 2800.020505] 28 jiffies for addrA:b1348000 addrB:b1348520 and garbage:b134bff0
[ 2800.020618] addr1: b1348530  addr2: b134bff0
[ 2800.300695] 28 jiffies for addrA:b1348000 addrB:b1348530 and garbage:b134bff0
[ 2800.300782] addr1: b1348540  addr2: b134bff0
[ 2800.581016] 28 jiffies for addrA:b1348000 addrB:b1348540 and garbage:b134bff0
[ 2800.581158] addr1: b1348550  addr2: b134bff0
[ 2800.861231] 28 jiffies for addrA:b1348000 addrB:b1348550 and garbage:b134bff0
[ 2800.861319] addr1: b1348560  addr2: b134bff0
[ 2801.141339] 28 jiffies for addrA:b1348000 addrB:b1348560 and garbage:b134bff0
[ 2801.141430] addr1: b1348570  addr2: b134bff0
[ 2801.421468] 28 jiffies for addrA:b1348000 addrB:b1348570 and garbage:b134bff0
[ 2801.421555] addr1: b1348580  addr2: b134bff0
[ 2801.701563] 28 jiffies for addrA:b1348000 addrB:b1348580 and garbage:b134bff0
[ 2801.701644] addr1: b1348590  addr2: b134bff0
[ 2801.981606] 28 jiffies for addrA:b1348000 addrB:b1348590 and garbage:b134bff0
[ 2801.981689] addr1: b13485a0  addr2: b134bff0
[ 2802.261913] 28 jiffies for addrA:b1348000 addrB:b13485a0 and garbage:b134bff0
[ 2802.262027] addr1: b13485b0  addr2: b134bff0
[ 2802.542075] 28 jiffies for addrA:b1348000 addrB:b13485b0 and garbage:b134bff0
[ 2802.542159] addr1: b13485c0  addr2: b134bff0
[ 2802.822119] 28 jiffies for addrA:b1348000 addrB:b13485c0 and garbage:b134bff0
[ 2802.822199] addr1: b13485d0  addr2: b134bff0
[ 2803.105010] 28 jiffies for addrA:b1348000 addrB:b13485d0 and garbage:b134bff0
[ 2803.105120] addr1: b13485e0  addr2: b134bff0
[ 2803.385187] 28 jiffies for addrA:b1348000 addrB:b13485e0 and garbage:b134bff0
[ 2803.385274] addr1: b13485f0  addr2: b134bff0
[ 2803.665427] 28 jiffies for addrA:b1348000 addrB:b13485f0 and garbage:b134bff0
[ 2803.665541] addr1: b1348600  addr2: b134bff0
[ 2803.945686] 28 jiffies for addrA:b1348000 addrB:b1348600 and garbage:b134bff0
[ 2803.945783] addr1: b1348610  addr2: b134bff0
[ 2804.225857] 28 jiffies for addrA:b1348000 addrB:b1348610 and garbage:b134bff0
[ 2804.225941] addr1: b1348620  addr2: b134bff0
[ 2804.505899] 28 jiffies for addrA:b1348000 addrB:b1348620 and garbage:b134bff0
[ 2804.505984] addr1: b1348630  addr2: b134bff0
[ 2804.785991] 28 jiffies for addrA:b1348000 addrB:b1348630 and garbage:b134bff0
[ 2804.786071] addr1: b1348640  addr2: b134bff0
[ 2805.066312] 28 jiffies for addrA:b1348000 addrB:b1348640 and garbage:b134bff0
[ 2805.066426] addr1: b1348650  addr2: b134bff0
[ 2805.346441] 28 jiffies for addrA:b1348000 addrB:b1348650 and garbage:b134bff0
[ 2805.346527] addr1: b1348660  addr2: b134bff0
[ 2805.626556] 28 jiffies for addrA:b1348000 addrB:b1348660 and garbage:b134bff0
[ 2805.626635] addr1: b1348670  addr2: b134bff0
[ 2805.907590] 28 jiffies for addrA:b1348000 addrB:b1348670 and garbage:b134bff0
[ 2805.907721] addr1: b1348680  addr2: b134bff0
[ 2806.189449] 28 jiffies for addrA:b1348000 addrB:b1348680 and garbage:b134bff0
[ 2806.189559] addr1: b1348690  addr2: b134bff0
[ 2806.469656] 28 jiffies for addrA:b1348000 addrB:b1348690 and garbage:b134bff0
[ 2806.469742] addr1: b13486a0  addr2: b134bff0
[ 2806.749959] 28 jiffies for addrA:b1348000 addrB:b13486a0 and garbage:b134bff0
[ 2806.750075] addr1: b13486b0  addr2: b134bff0
[ 2807.030132] 28 jiffies for addrA:b1348000 addrB:b13486b0 and garbage:b134bff0
[ 2807.030230] addr1: b13486c0  addr2: b134bff0
[ 2807.310361] 28 jiffies for addrA:b1348000 addrB:b13486c0 and garbage:b134bff0
[ 2807.310455] addr1: b13486d0  addr2: b134bff0
[ 2807.590477] 28 jiffies for addrA:b1348000 addrB:b13486d0 and garbage:b134bff0
[ 2807.590556] addr1: b13486e0  addr2: b134bff0
[ 2807.870504] 28 jiffies for addrA:b1348000 addrB:b13486e0 and garbage:b134bff0
[ 2807.870586] addr1: b13486f0  addr2: b134bff0
[ 2808.150803] 28 jiffies for addrA:b1348000 addrB:b13486f0 and garbage:b134bff0
[ 2808.150918] addr1: b1348700  addr2: b134bff0
[ 2808.431002] 28 jiffies for addrA:b1348000 addrB:b1348700 and garbage:b134bff0
[ 2808.431094] addr1: b1348710  addr2: b134bff0
[ 2808.711067] 28 jiffies for addrA:b1348000 addrB:b1348710 and garbage:b134bff0
[ 2808.711150] addr1: b1348720  addr2: b134bff0
[ 2808.993774] 29 jiffies for addrA:b1348000 addrB:b1348720 and garbage:b134bff0
[ 2808.993888] addr1: b1348730  addr2: b134bff0
[ 2809.273988] 28 jiffies for addrA:b1348000 addrB:b1348730 and garbage:b134bff0
[ 2809.274079] addr1: b1348740  addr2: b134bff0
[ 2809.554244] 28 jiffies for addrA:b1348000 addrB:b1348740 and garbage:b134bff0
[ 2809.554360] addr1: b1348750  addr2: b134bff0
[ 2809.834469] 28 jiffies for addrA:b1348000 addrB:b1348750 and garbage:b134bff0
[ 2809.834569] addr1: b1348760  addr2: b134bff0
[ 2810.114633] 28 jiffies for addrA:b1348000 addrB:b1348760 and garbage:b134bff0
[ 2810.114719] addr1: b1348770  addr2: b134bff0
[ 2810.394685] 28 jiffies for addrA:b1348000 addrB:b1348770 and garbage:b134bff0
[ 2810.394766] addr1: b1348780  addr2: b134bff0
[ 2810.674796] 28 jiffies for addrA:b1348000 addrB:b1348780 and garbage:b134bff0
[ 2810.674877] addr1: b1348790  addr2: b134bff0
[ 2810.954956] 28 jiffies for addrA:b1348000 addrB:b1348790 and garbage:b134bff0
[ 2810.955050] addr1: b13487a0  addr2: b134bff0
[ 2811.235267] 28 jiffies for addrA:b1348000 addrB:b13487a0 and garbage:b134bff0
[ 2811.235383] addr1: b13487b0  addr2: b134bff0
[ 2811.516761] 28 jiffies for addrA:b1348000 addrB:b13487b0 and garbage:b134bff0
[ 2811.516876] addr1: b13487c0  addr2: b134bff0
[ 2811.797097] 28 jiffies for addrA:b1348000 addrB:b13487c0 and garbage:b134bff0
[ 2811.797203] addr1: b13487d0  addr2: b134bff0
[ 2812.080090] 28 jiffies for addrA:b1348000 addrB:b13487d0 and garbage:b134bff0
[ 2812.080203] addr1: b13487e0  addr2: b134bff0
[ 2812.360307] 28 jiffies for addrA:b1348000 addrB:b13487e0 and garbage:b134bff0
[ 2812.360405] addr1: b13487f0  addr2: b134bff0
[ 2812.640681] 28 jiffies for addrA:b1348000 addrB:b13487f0 and garbage:b134bff0
[ 2812.640799] addr1: b1348800  addr2: b134bff0
[ 2812.921361] 29 jiffies for addrA:b1348000 addrB:b1348800 and garbage:b134bff0
[ 2812.921487] addr1: b1348810  addr2: b134bff0
[ 2813.201818] 28 jiffies for addrA:b1348000 addrB:b1348810 and garbage:b134bff0
[ 2813.201926] addr1: b1348820  addr2: b134bff0
[ 2813.481987] 28 jiffies for addrA:b1348000 addrB:b1348820 and garbage:b134bff0
[ 2813.482075] addr1: b1348830  addr2: b134bff0
[ 2813.762130] 28 jiffies for addrA:b1348000 addrB:b1348830 and garbage:b134bff0
[ 2813.762222] addr1: b1348840  addr2: b134bff0
[ 2814.042398] 28 jiffies for addrA:b1348000 addrB:b1348840 and garbage:b134bff0
[ 2814.042499] addr1: b1348850  addr2: b134bff0
[ 2814.322817] 28 jiffies for addrA:b1348000 addrB:b1348850 and garbage:b134bff0
[ 2814.322928] addr1: b1348860  addr2: b134bff0
[ 2814.602914] 28 jiffies for addrA:b1348000 addrB:b1348860 and garbage:b134bff0
[ 2814.603010] addr1: b1348870  addr2: b134bff0
[ 2814.883002] 28 jiffies for addrA:b1348000 addrB:b1348870 and garbage:b134bff0
[ 2814.883083] addr1: b1348880  addr2: b134bff0
[ 2815.165753] 28 jiffies for addrA:b1348000 addrB:b1348880 and garbage:b134bff0
[ 2815.165861] addr1: b1348890  addr2: b134bff0
[ 2815.445897] 28 jiffies for addrA:b1348000 addrB:b1348890 and garbage:b134bff0
[ 2815.445980] addr1: b13488a0  addr2: b134bff0
[ 2815.726589] 28 jiffies for addrA:b1348000 addrB:b13488a0 and garbage:b134bff0
[ 2815.726700] addr1: b13488b0  addr2: b134bff0
[ 2816.006876] 28 jiffies for addrA:b1348000 addrB:b13488b0 and garbage:b134bff0
[ 2816.006980] addr1: b13488c0  addr2: b134bff0
[ 2816.287085] 28 jiffies for addrA:b1348000 addrB:b13488c0 and garbage:b134bff0
[ 2816.287173] addr1: b13488d0  addr2: b134bff0
[ 2816.567193] 28 jiffies for addrA:b1348000 addrB:b13488d0 and garbage:b134bff0
[ 2816.567280] addr1: b13488e0  addr2: b134bff0
[ 2816.847304] 28 jiffies for addrA:b1348000 addrB:b13488e0 and garbage:b134bff0
[ 2816.847387] addr1: b13488f0  addr2: b134bff0
[ 2817.127628] 28 jiffies for addrA:b1348000 addrB:b13488f0 and garbage:b134bff0
[ 2817.127743] addr1: b1348900  addr2: b134bff0
[ 2817.407777] 28 jiffies for addrA:b1348000 addrB:b1348900 and garbage:b134bff0
[ 2817.407863] addr1: b1348910  addr2: b134bff0
[ 2817.687886] 28 jiffies for addrA:b1348000 addrB:b1348910 and garbage:b134bff0
[ 2817.687964] addr1: b1348920  addr2: b134bff0
[ 2817.967991] 28 jiffies for addrA:b1348000 addrB:b1348920 and garbage:b134bff0
[ 2817.968083] addr1: b1348930  addr2: b134bff0
[ 2818.251209] 28 jiffies for addrA:b1348000 addrB:b1348930 and garbage:b134bff0
[ 2818.251330] addr1: b1348940  addr2: b134bff0
[ 2818.531419] 28 jiffies for addrA:b1348000 addrB:b1348940 and garbage:b134bff0
[ 2818.531511] addr1: b1348950  addr2: b134bff0
[ 2818.811713] 28 jiffies for addrA:b1348000 addrB:b1348950 and garbage:b134bff0
[ 2818.811828] addr1: b1348960  addr2: b134bff0
[ 2819.091915] 28 jiffies for addrA:b1348000 addrB:b1348960 and garbage:b134bff0
[ 2819.092014] addr1: b1348970  addr2: b134bff0
[ 2819.372072] 28 jiffies for addrA:b1348000 addrB:b1348970 and garbage:b134bff0
[ 2819.372157] addr1: b1348980  addr2: b134bff0
[ 2819.652175] 28 jiffies for addrA:b1348000 addrB:b1348980 and garbage:b134bff0
[ 2819.652261] addr1: b1348990  addr2: b134bff0
[ 2819.932268] 28 jiffies for addrA:b1348000 addrB:b1348990 and garbage:b134bff0
[ 2819.932362] addr1: b13489a0  addr2: b134bff0
[ 2820.212668] 28 jiffies for addrA:b1348000 addrB:b13489a0 and garbage:b134bff0
[ 2820.212782] addr1: b13489b0  addr2: b134bff0
[ 2820.492854] 28 jiffies for addrA:b1348000 addrB:b13489b0 and garbage:b134bff0
[ 2820.492940] addr1: b13489c0  addr2: b134bff0
[ 2820.774151] 28 jiffies for addrA:b1348000 addrB:b13489c0 and garbage:b134bff0
[ 2820.774264] addr1: b13489d0  addr2: b134bff0
[ 2821.055084] 28 jiffies for addrA:b1348000 addrB:b13489d0 and garbage:b134bff0
[ 2821.056941] addr1: b13489e0  addr2: b134bff0
[ 2821.338836] 28 jiffies for addrA:b1348000 addrB:b13489e0 and garbage:b134bff0
[ 2821.338949] addr1: b13489f0  addr2: b134bff0
[ 2821.619170] 28 jiffies for addrA:b1348000 addrB:b13489f0 and garbage:b134bff0
[ 2821.619298] addr1: b1348a00  addr2: b134bff0
[ 2821.899453] 28 jiffies for addrA:b1348000 addrB:b1348a00 and garbage:b134bff0
[ 2821.899544] addr1: b1348a10  addr2: b134bff0
[ 2822.179624] 28 jiffies for addrA:b1348000 addrB:b1348a10 and garbage:b134bff0
[ 2822.179712] addr1: b1348a20  addr2: b134bff0
[ 2822.459750] 28 jiffies for addrA:b1348000 addrB:b1348a20 and garbage:b134bff0
[ 2822.459841] addr1: b1348a30  addr2: b134bff0
[ 2822.739885] 28 jiffies for addrA:b1348000 addrB:b1348a30 and garbage:b134bff0
[ 2822.739967] addr1: b1348a40  addr2: b134bff0
[ 2823.020074] 28 jiffies for addrA:b1348000 addrB:b1348a40 and garbage:b134bff0
[ 2823.020177] addr1: b1348a50  addr2: b134bff0
[ 2823.300383] 28 jiffies for addrA:b1348000 addrB:b1348a50 and garbage:b134bff0
[ 2823.300499] addr1: b1348a60  addr2: b134bff0
[ 2823.580556] 28 jiffies for addrA:b1348000 addrB:b1348a60 and garbage:b134bff0
[ 2823.580641] addr1: b1348a70  addr2: b134bff0
[ 2823.860662] 28 jiffies for addrA:b1348000 addrB:b1348a70 and garbage:b134bff0
[ 2823.860746] addr1: b1348a80  addr2: b134bff0
[ 2824.143434] 29 jiffies for addrA:b1348000 addrB:b1348a80 and garbage:b134bff0
[ 2824.143544] addr1: b1348a90  addr2: b134bff0
[ 2824.423635] 28 jiffies for addrA:b1348000 addrB:b1348a90 and garbage:b134bff0
[ 2824.423719] addr1: b1348aa0  addr2: b134bff0
[ 2824.703932] 28 jiffies for addrA:b1348000 addrB:b1348aa0 and garbage:b134bff0
[ 2824.704049] addr1: b1348ab0  addr2: b134bff0
[ 2824.984081] 28 jiffies for addrA:b1348000 addrB:b1348ab0 and garbage:b134bff0
[ 2824.984173] addr1: b1348ac0  addr2: b134bff0
[ 2825.264233] 28 jiffies for addrA:b1348000 addrB:b1348ac0 and garbage:b134bff0
[ 2825.264316] addr1: b1348ad0  addr2: b134bff0
[ 2825.544326] 28 jiffies for addrA:b1348000 addrB:b1348ad0 and garbage:b134bff0
[ 2825.544407] addr1: b1348ae0  addr2: b134bff0
[ 2825.824351] 28 jiffies for addrA:b1348000 addrB:b1348ae0 and garbage:b134bff0
[ 2825.824430] addr1: b1348af0  addr2: b134bff0
[ 2826.104751] 28 jiffies for addrA:b1348000 addrB:b1348af0 and garbage:b134bff0
[ 2826.104869] addr1: b1348b00  addr2: b134bff0
[ 2826.384946] 28 jiffies for addrA:b1348000 addrB:b1348b00 and garbage:b134bff0
[ 2826.385031] addr1: b1348b10  addr2: b134bff0
[ 2826.664996] 28 jiffies for addrA:b1348000 addrB:b1348b10 and garbage:b134bff0
[ 2826.665077] addr1: b1348b20  addr2: b134bff0
[ 2826.945094] 28 jiffies for addrA:b1348000 addrB:b1348b20 and garbage:b134bff0
[ 2826.945179] addr1: b1348b30  addr2: b134bff0
[ 2827.227781] 28 jiffies for addrA:b1348000 addrB:b1348b30 and garbage:b134bff0
[ 2827.227893] addr1: b1348b40  addr2: b134bff0
[ 2827.507958] 28 jiffies for addrA:b1348000 addrB:b1348b40 and garbage:b134bff0
[ 2827.508050] addr1: b1348b50  addr2: b134bff0
[ 2827.788284] 28 jiffies for addrA:b1348000 addrB:b1348b50 and garbage:b134bff0
[ 2827.788401] addr1: b1348b60  addr2: b134bff0
[ 2828.068555] 28 jiffies for addrA:b1348000 addrB:b1348b60 and garbage:b134bff0
[ 2828.068651] addr1: b1348b70  addr2: b134bff0
[ 2828.348641] 28 jiffies for addrA:b1348000 addrB:b1348b70 and garbage:b134bff0
[ 2828.348726] addr1: b1348b80  addr2: b134bff0
[ 2828.628745] 28 jiffies for addrA:b1348000 addrB:b1348b80 and garbage:b134bff0
[ 2828.628827] addr1: b1348b90  addr2: b134bff0
[ 2828.908831] 28 jiffies for addrA:b1348000 addrB:b1348b90 and garbage:b134bff0
[ 2828.908910] addr1: b1348ba0  addr2: b134bff0
[ 2829.189157] 28 jiffies for addrA:b1348000 addrB:b1348ba0 and garbage:b134bff0
[ 2829.189274] addr1: b1348bb0  addr2: b134bff0
[ 2829.469384] 28 jiffies for addrA:b1348000 addrB:b1348bb0 and garbage:b134bff0
[ 2829.469478] addr1: b1348bc0  addr2: b134bff0
[ 2829.749526] 28 jiffies for addrA:b1348000 addrB:b1348bc0 and garbage:b134bff0
[ 2829.749611] addr1: b1348bd0  addr2: b134bff0
[ 2830.029582] 28 jiffies for addrA:b1348000 addrB:b1348bd0 and garbage:b134bff0
[ 2830.029668] addr1: b1348be0  addr2: b134bff0
[ 2830.312319] 29 jiffies for addrA:b1348000 addrB:b1348be0 and garbage:b134bff0
[ 2830.312429] addr1: b1348bf0  addr2: b134bff0
[ 2830.592688] 28 jiffies for addrA:b1348000 addrB:b1348bf0 and garbage:b134bff0
[ 2830.592805] addr1: b1348c00  addr2: b134bff0
[ 2830.872837] 28 jiffies for addrA:b1348000 addrB:b1348c00 and garbage:b134bff0
[ 2830.872922] addr1: b1348c10  addr2: b134bff0
[ 2831.152940] 28 jiffies for addrA:b1348000 addrB:b1348c10 and garbage:b134bff0
[ 2831.153025] addr1: b1348c20  addr2: b134bff0
[ 2831.433033] 28 jiffies for addrA:b1348000 addrB:b1348c20 and garbage:b134bff0
[ 2831.433111] addr1: b1348c30  addr2: b134bff0
[ 2831.713080] 28 jiffies for addrA:b1348000 addrB:b1348c30 and garbage:b134bff0
[ 2831.713162] addr1: b1348c40  addr2: b134bff0
[ 2831.993207] 28 jiffies for addrA:b1348000 addrB:b1348c40 and garbage:b134bff0
[ 2831.993303] addr1: b1348c50  addr2: b134bff0
[ 2832.273551] 28 jiffies for addrA:b1348000 addrB:b1348c50 and garbage:b134bff0
[ 2832.273667] addr1: b1348c60  addr2: b134bff0
[ 2832.553723] 28 jiffies for addrA:b1348000 addrB:b1348c60 and garbage:b134bff0
[ 2832.553809] addr1: b1348c70  addr2: b134bff0
[ 2832.833819] 28 jiffies for addrA:b1348000 addrB:b1348c70 and garbage:b134bff0
[ 2832.833897] addr1: b1348c80  addr2: b134bff0
[ 2833.113959] 28 jiffies for addrA:b1348000 addrB:b1348c80 and garbage:b134bff0
[ 2833.114046] addr1: b1348c90  addr2: b134bff0
[ 2833.396697] 28 jiffies for addrA:b1348000 addrB:b1348c90 and garbage:b134bff0
[ 2833.396809] addr1: b1348ca0  addr2: b134bff0
[ 2833.677056] 28 jiffies for addrA:b1348000 addrB:b1348ca0 and garbage:b134bff0
[ 2833.677172] addr1: b1348cb0  addr2: b134bff0
[ 2833.957277] 28 jiffies for addrA:b1348000 addrB:b1348cb0 and garbage:b134bff0
[ 2833.957373] addr1: b1348cc0  addr2: b134bff0
[ 2834.237402] 28 jiffies for addrA:b1348000 addrB:b1348cc0 and garbage:b134bff0
[ 2834.237486] addr1: b1348cd0  addr2: b134bff0
[ 2834.517478] 28 jiffies for addrA:b1348000 addrB:b1348cd0 and garbage:b134bff0
[ 2834.517558] addr1: b1348ce0  addr2: b134bff0
[ 2834.797583] 28 jiffies for addrA:b1348000 addrB:b1348ce0 and garbage:b134bff0
[ 2834.797673] addr1: b1348cf0  addr2: b134bff0
[ 2835.077925] 28 jiffies for addrA:b1348000 addrB:b1348cf0 and garbage:b134bff0
[ 2835.078046] addr1: b1348d00  addr2: b134bff0
[ 2835.358111] 28 jiffies for addrA:b1348000 addrB:b1348d00 and garbage:b134bff0
[ 2835.358200] addr1: b1348d10  addr2: b134bff0
[ 2835.638211] 28 jiffies for addrA:b1348000 addrB:b1348d10 and garbage:b134bff0
[ 2835.638291] addr1: b1348d20  addr2: b134bff0
[ 2835.918275] 28 jiffies for addrA:b1348000 addrB:b1348d20 and garbage:b134bff0
[ 2835.918361] addr1: b1348d30  addr2: b134bff0
[ 2836.198708] 28 jiffies for addrA:b1348000 addrB:b1348d30 and garbage:b134bff0
[ 2836.198826] addr1: b1348d40  addr2: b134bff0
[ 2836.481269] 28 jiffies for addrA:b1348000 addrB:b1348d40 and garbage:b134bff0
[ 2836.481380] addr1: b1348d50  addr2: b134bff0
[ 2836.761639] 29 jiffies for addrA:b1348000 addrB:b1348d50 and garbage:b134bff0
[ 2836.761755] addr1: b1348d60  addr2: b134bff0
[ 2837.041811] 28 jiffies for addrA:b1348000 addrB:b1348d60 and garbage:b134bff0
[ 2837.041904] addr1: b1348d70  addr2: b134bff0
[ 2837.321940] 28 jiffies for addrA:b1348000 addrB:b1348d70 and garbage:b134bff0
[ 2837.322021] addr1: b1348d80  addr2: b134bff0
[ 2837.602130] 28 jiffies for addrA:b1348000 addrB:b1348d80 and garbage:b134bff0
[ 2837.602230] addr1: b1348d90  addr2: b134bff0
[ 2837.882231] 28 jiffies for addrA:b1348000 addrB:b1348d90 and garbage:b134bff0
[ 2837.882312] addr1: b1348da0  addr2: b134bff0
[ 2838.162585] 28 jiffies for addrA:b1348000 addrB:b1348da0 and garbage:b134bff0
[ 2838.162703] addr1: b1348db0  addr2: b134bff0
[ 2838.442785] 28 jiffies for addrA:b1348000 addrB:b1348db0 and garbage:b134bff0
[ 2838.442871] addr1: b1348dc0  addr2: b134bff0
[ 2838.722871] 28 jiffies for addrA:b1348000 addrB:b1348dc0 and garbage:b134bff0
[ 2838.722949] addr1: b1348dd0  addr2: b134bff0
[ 2839.002990] 28 jiffies for addrA:b1348000 addrB:b1348dd0 and garbage:b134bff0
[ 2839.003075] addr1: b1348de0  addr2: b134bff0
[ 2839.285791] 28 jiffies for addrA:b1348000 addrB:b1348de0 and garbage:b134bff0
[ 2839.285905] addr1: b1348df0  addr2: b134bff0
[ 2839.565934] 28 jiffies for addrA:b1348000 addrB:b1348df0 and garbage:b134bff0
[ 2839.566022] addr1: b1348e00  addr2: b134bff0
[ 2839.846252] 28 jiffies for addrA:b1348000 addrB:b1348e00 and garbage:b134bff0
[ 2839.846367] addr1: b1348e10  addr2: b134bff0
[ 2840.126516] 28 jiffies for addrA:b1348000 addrB:b1348e10 and garbage:b134bff0
[ 2840.126615] addr1: b1348e20  addr2: b134bff0
[ 2840.406609] 28 jiffies for addrA:b1348000 addrB:b1348e20 and garbage:b134bff0
[ 2840.406691] addr1: b1348e30  addr2: b134bff0
[ 2840.686724] 28 jiffies for addrA:b1348000 addrB:b1348e30 and garbage:b134bff0
[ 2840.686814] addr1: b1348e40  addr2: b134bff0
[ 2840.966887] 28 jiffies for addrA:b1348000 addrB:b1348e40 and garbage:b134bff0
[ 2840.966982] addr1: b1348e50  addr2: b134bff0
[ 2841.247177] 28 jiffies for addrA:b1348000 addrB:b1348e50 and garbage:b134bff0
[ 2841.247293] addr1: b1348e60  addr2: b134bff0
[ 2841.527369] 28 jiffies for addrA:b1348000 addrB:b1348e60 and garbage:b134bff0
[ 2841.527456] addr1: b1348e70  addr2: b134bff0
[ 2841.807463] 28 jiffies for addrA:b1348000 addrB:b1348e70 and garbage:b134bff0
[ 2841.807541] addr1: b1348e80  addr2: b134bff0
[ 2842.087526] 28 jiffies for addrA:b1348000 addrB:b1348e80 and garbage:b134bff0
[ 2842.087613] addr1: b1348e90  addr2: b134bff0
[ 2842.370233] 28 jiffies for addrA:b1348000 addrB:b1348e90 and garbage:b134bff0
[ 2842.370346] addr1: b1348ea0  addr2: b134bff0
[ 2842.650630] 28 jiffies for addrA:b1348000 addrB:b1348ea0 and garbage:b134bff0
[ 2842.650746] addr1: b1348eb0  addr2: b134bff0
[ 2842.932152] 29 jiffies for addrA:b1348000 addrB:b1348eb0 and garbage:b134bff0
[ 2842.932263] addr1: b1348ec0  addr2: b134bff0
[ 2843.212511] 28 jiffies for addrA:b1348000 addrB:b1348ec0 and garbage:b134bff0
[ 2843.212617] addr1: b1348ed0  addr2: b134bff0
[ 2843.492793] 28 jiffies for addrA:b1348000 addrB:b1348ed0 and garbage:b134bff0
[ 2843.492898] addr1: b1348ee0  addr2: b134bff0
[ 2843.772964] 28 jiffies for addrA:b1348000 addrB:b1348ee0 and garbage:b134bff0
[ 2843.773066] addr1: b1348ef0  addr2: b134bff0
[ 2844.053678] 28 jiffies for addrA:b1348000 addrB:b1348ef0 and garbage:b134bff0
[ 2844.053804] addr1: b1348f00  addr2: b134bff0
[ 2844.334371] 28 jiffies for addrA:b1348000 addrB:b1348f00 and garbage:b134bff0
[ 2844.334484] addr1: b1348f10  addr2: b134bff0
[ 2844.614478] 28 jiffies for addrA:b1348000 addrB:b1348f10 and garbage:b134bff0
[ 2844.614563] addr1: b1348f20  addr2: b134bff0
[ 2844.894587] 28 jiffies for addrA:b1348000 addrB:b1348f20 and garbage:b134bff0
[ 2844.894681] addr1: b1348f30  addr2: b134bff0
[ 2845.174737] 28 jiffies for addrA:b1348000 addrB:b1348f30 and garbage:b134bff0
[ 2845.174825] addr1: b1348f40  addr2: b134bff0
[ 2845.457372] 28 jiffies for addrA:b1348000 addrB:b1348f40 and garbage:b134bff0
[ 2845.457485] addr1: b1348f50  addr2: b134bff0
[ 2845.737738] 28 jiffies for addrA:b1348000 addrB:b1348f50 and garbage:b134bff0
[ 2845.737867] addr1: b1348f60  addr2: b134bff0
[ 2846.018393] 28 jiffies for addrA:b1348000 addrB:b1348f60 and garbage:b134bff0
[ 2846.018505] addr1: b1348f70  addr2: b134bff0
[ 2846.298617] 28 jiffies for addrA:b1348000 addrB:b1348f70 and garbage:b134bff0
[ 2846.298721] addr1: b1348f80  addr2: b134bff0
[ 2846.578782] 28 jiffies for addrA:b1348000 addrB:b1348f80 and garbage:b134bff0
[ 2846.578868] addr1: b1348f90  addr2: b134bff0
[ 2846.858896] 28 jiffies for addrA:b1348000 addrB:b1348f90 and garbage:b134bff0
[ 2846.858975] addr1: b1348fa0  addr2: b134bff0
[ 2847.139159] 28 jiffies for addrA:b1348000 addrB:b1348fa0 and garbage:b134bff0
[ 2847.139276] addr1: b1348fb0  addr2: b134bff0
[ 2847.419342] 28 jiffies for addrA:b1348000 addrB:b1348fb0 and garbage:b134bff0
[ 2847.419434] addr1: b1348fc0  addr2: b134bff0
[ 2847.699601] 28 jiffies for addrA:b1348000 addrB:b1348fc0 and garbage:b134bff0
[ 2847.699708] addr1: b1348fd0  addr2: b134bff0
[ 2847.980407] 28 jiffies for addrA:b1348000 addrB:b1348fd0 and garbage:b134bff0
[ 2847.980516] addr1: b1348fe0  addr2: b134bff0
[ 2848.260677] 28 jiffies for addrA:b1348000 addrB:b1348fe0 and garbage:b134bff0
[ 2848.260781] addr1: b1348ff0  addr2: b134bff0
[ 2848.543403] 29 jiffies for addrA:b1348000 addrB:b1348ff0 and garbage:b134bff0
[ 2848.543514] addr1: b1349000  addr2: b134bff0
[ 2848.823752] 28 jiffies for addrA:b1348000 addrB:b1349000 and garbage:b134bff0
[ 2848.823867] addr1: b1349010  addr2: b134bff0
[ 2849.103967] 28 jiffies for addrA:b1348000 addrB:b1349010 and garbage:b134bff0
[ 2849.104057] addr1: b1349020  addr2: b134bff0
[ 2849.384113] 28 jiffies for addrA:b1348000 addrB:b1349020 and garbage:b134bff0
[ 2849.384197] addr1: b1349030  addr2: b134bff0
[ 2849.664196] 28 jiffies for addrA:b1348000 addrB:b1349030 and garbage:b134bff0
[ 2849.664279] addr1: b1349040  addr2: b134bff0
[ 2849.944344] 28 jiffies for addrA:b1348000 addrB:b1349040 and garbage:b134bff0
[ 2849.944440] addr1: b1349050  addr2: b134bff0
[ 2850.224714] 28 jiffies for addrA:b1348000 addrB:b1349050 and garbage:b134bff0
[ 2850.224828] addr1: b1349060  addr2: b134bff0
[ 2850.505254] 28 jiffies for addrA:b1348000 addrB:b1349060 and garbage:b134bff0
[ 2850.505363] addr1: b1349070  addr2: b134bff0
[ 2850.786311] 28 jiffies for addrA:b1348000 addrB:b1349070 and garbage:b134bff0
[ 2850.786420] addr1: b1349080  addr2: b134bff0
[ 2851.066656] 28 jiffies for addrA:b1348000 addrB:b1349080 and garbage:b134bff0
[ 2851.066761] addr1: b1349090  addr2: b134bff0
[ 2851.346872] 28 jiffies for addrA:b1348000 addrB:b1349090 and garbage:b134bff0
[ 2851.346979] addr1: b13490a0  addr2: b134bff0
[ 2851.630133] 28 jiffies for addrA:b1348000 addrB:b13490a0 and garbage:b134bff0
[ 2851.630254] addr1: b13490b0  addr2: b134bff0
[ 2851.910521] 28 jiffies for addrA:b1348000 addrB:b13490b0 and garbage:b134bff0
[ 2851.910620] addr1: b13490c0  addr2: b134bff0
[ 2852.191131] 28 jiffies for addrA:b1348000 addrB:b13490c0 and garbage:b134bff0
[ 2852.191246] addr1: b13490d0  addr2: b134bff0
[ 2852.471269] 28 jiffies for addrA:b1348000 addrB:b13490d0 and garbage:b134bff0
[ 2852.471361] addr1: b13490e0  addr2: b134bff0
[ 2852.751469] 28 jiffies for addrA:b1348000 addrB:b13490e0 and garbage:b134bff0
[ 2852.751568] addr1: b13490f0  addr2: b134bff0
[ 2853.031612] 28 jiffies for addrA:b1348000 addrB:b13490f0 and garbage:b134bff0
[ 2853.031719] addr1: b1349100  addr2: b134bff0
[ 2853.311876] 28 jiffies for addrA:b1348000 addrB:b1349100 and garbage:b134bff0
[ 2853.311991] addr1: b1349110  addr2: b134bff0
[ 2853.592069] 28 jiffies for addrA:b1348000 addrB:b1349110 and garbage:b134bff0
[ 2853.592154] addr1: b1349120  addr2: b134bff0
[ 2853.872160] 28 jiffies for addrA:b1348000 addrB:b1349120 and garbage:b134bff0
[ 2853.872239] addr1: b1349130  addr2: b134bff0
[ 2854.152345] 28 jiffies for addrA:b1348000 addrB:b1349130 and garbage:b134bff0
[ 2854.152447] addr1: b1349140  addr2: b134bff0
[ 2854.435113] 28 jiffies for addrA:b1348000 addrB:b1349140 and garbage:b134bff0
[ 2854.435228] addr1: b1349150  addr2: b134bff0
[ 2854.715493] 28 jiffies for addrA:b1348000 addrB:b1349150 and garbage:b134bff0
[ 2854.715608] addr1: b1349160  addr2: b134bff0
[ 2854.995663] 28 jiffies for addrA:b1348000 addrB:b1349160 and garbage:b134bff0
[ 2854.995754] addr1: b1349170  addr2: b134bff0
[ 2855.275857] 28 jiffies for addrA:b1348000 addrB:b1349170 and garbage:b134bff0
[ 2855.275945] addr1: b1349180  addr2: b134bff0
[ 2855.555966] 28 jiffies for addrA:b1348000 addrB:b1349180 and garbage:b134bff0
[ 2855.556051] addr1: b1349190  addr2: b134bff0
[ 2855.836015] 28 jiffies for addrA:b1348000 addrB:b1349190 and garbage:b134bff0
[ 2855.836100] addr1: b13491a0  addr2: b134bff0
[ 2856.116913] 28 jiffies for addrA:b1348000 addrB:b13491a0 and garbage:b134bff0
[ 2856.117031] addr1: b13491b0  addr2: b134bff0
[ 2856.397110] 28 jiffies for addrA:b1348000 addrB:b13491b0 and garbage:b134bff0
[ 2856.397199] addr1: b13491c0  addr2: b134bff0
[ 2856.677187] 28 jiffies for addrA:b1348000 addrB:b13491c0 and garbage:b134bff0
[ 2856.677268] addr1: b13491d0  addr2: b134bff0
[ 2856.957296] 28 jiffies for addrA:b1348000 addrB:b13491d0 and garbage:b134bff0
[ 2856.957385] addr1: b13491e0  addr2: b134bff0
[ 2857.237440] 28 jiffies for addrA:b1348000 addrB:b13491e0 and garbage:b134bff0
[ 2857.237530] addr1: b13491f0  addr2: b134bff0
[ 2857.520124] 28 jiffies for addrA:b1348000 addrB:b13491f0 and garbage:b134bff0
[ 2857.520236] addr1: b1349200  addr2: b134bff0
[ 2857.800514] 28 jiffies for addrA:b1348000 addrB:b1349200 and garbage:b134bff0
[ 2857.800630] addr1: b1349210  addr2: b134bff0
[ 2858.080730] 28 jiffies for addrA:b1348000 addrB:b1349210 and garbage:b134bff0
[ 2858.080825] addr1: b1349220  addr2: b134bff0
[ 2858.360795] 28 jiffies for addrA:b1348000 addrB:b1349220 and garbage:b134bff0
[ 2858.360879] addr1: b1349230  addr2: b134bff0
[ 2858.640901] 28 jiffies for addrA:b1348000 addrB:b1349230 and garbage:b134bff0
[ 2858.640980] addr1: b1349240  addr2: b134bff0
[ 2858.921040] 28 jiffies for addrA:b1348000 addrB:b1349240 and garbage:b134bff0
[ 2858.921136] addr1: b1349250  addr2: b134bff0
[ 2859.201321] 28 jiffies for addrA:b1348000 addrB:b1349250 and garbage:b134bff0
[ 2859.201436] addr1: b1349260  addr2: b134bff0
[ 2859.481503] 28 jiffies for addrA:b1348000 addrB:b1349260 and garbage:b134bff0
[ 2859.481592] addr1: b1349270  addr2: b134bff0
[ 2859.761637] 28 jiffies for addrA:b1348000 addrB:b1349270 and garbage:b134bff0
[ 2859.761730] addr1: b1349280  addr2: b134bff0
[ 2860.041721] 28 jiffies for addrA:b1348000 addrB:b1349280 and garbage:b134bff0
[ 2860.041805] addr1: b1349290  addr2: b134bff0
[ 2860.321862] 28 jiffies for addrA:b1348000 addrB:b1349290 and garbage:b134bff0
[ 2860.321945] addr1: b13492a0  addr2: b134bff0
[ 2860.604764] 28 jiffies for addrA:b1348000 addrB:b13492a0 and garbage:b134bff0
[ 2860.604881] addr1: b13492b0  addr2: b134bff0
[ 2860.884924] 28 jiffies for addrA:b1348000 addrB:b13492b0 and garbage:b134bff0
[ 2860.885010] addr1: b13492c0  addr2: b134bff0
[ 2861.165155] 28 jiffies for addrA:b1348000 addrB:b13492c0 and garbage:b134bff0
[ 2861.165255] addr1: b13492d0  addr2: b134bff0
[ 2861.445396] 28 jiffies for addrA:b1348000 addrB:b13492d0 and garbage:b134bff0
[ 2861.445497] addr1: b13492e0  addr2: b134bff0
[ 2861.725480] 28 jiffies for addrA:b1348000 addrB:b13492e0 and garbage:b134bff0
[ 2861.725570] addr1: b13492f0  addr2: b134bff0
[ 2862.005688] 28 jiffies for addrA:b1348000 addrB:b13492f0 and garbage:b134bff0
[ 2862.005790] addr1: b1349300  addr2: b134bff0
[ 2862.286071] 28 jiffies for addrA:b1348000 addrB:b1349300 and garbage:b134bff0
[ 2862.286185] addr1: b1349310  addr2: b134bff0
[ 2862.566209] 28 jiffies for addrA:b1348000 addrB:b1349310 and garbage:b134bff0
[ 2862.566303] addr1: b1349320  addr2: b134bff0
[ 2862.846327] 28 jiffies for addrA:b1348000 addrB:b1349320 and garbage:b134bff0
[ 2862.846414] addr1: b1349330  addr2: b134bff0
[ 2863.126434] 28 jiffies for addrA:b1348000 addrB:b1349330 and garbage:b134bff0
[ 2863.126520] addr1: b1349340  addr2: b134bff0
[ 2863.406486] 28 jiffies for addrA:b1348000 addrB:b1349340 and garbage:b134bff0
[ 2863.406565] addr1: b1349350  addr2: b134bff0
[ 2863.689385] 28 jiffies for addrA:b1348000 addrB:b1349350 and garbage:b134bff0
[ 2863.689502] addr1: b1349360  addr2: b134bff0
[ 2863.969603] 28 jiffies for addrA:b1348000 addrB:b1349360 and garbage:b134bff0
[ 2863.969698] addr1: b1349370  addr2: b134bff0
[ 2864.249810] 28 jiffies for addrA:b1348000 addrB:b1349370 and garbage:b134bff0
[ 2864.249910] addr1: b1349380  addr2: b134bff0
[ 2864.529993] 28 jiffies for addrA:b1348000 addrB:b1349380 and garbage:b134bff0
[ 2864.530090] addr1: b1349390  addr2: b134bff0
[ 2864.810126] 28 jiffies for addrA:b1348000 addrB:b1349390 and garbage:b134bff0
[ 2864.810212] addr1: b13493a0  addr2: b134bff0
[ 2865.090278] 28 jiffies for addrA:b1348000 addrB:b13493a0 and garbage:b134bff0
[ 2865.090375] addr1: b13493b0  addr2: b134bff0
[ 2865.370791] 28 jiffies for addrA:b1348000 addrB:b13493b0 and garbage:b134bff0
[ 2865.370901] addr1: b13493c0  addr2: b134bff0
[ 2865.650997] 28 jiffies for addrA:b1348000 addrB:b13493c0 and garbage:b134bff0
[ 2865.651084] addr1: b13493d0  addr2: b134bff0
[ 2865.931070] 28 jiffies for addrA:b1348000 addrB:b13493d0 and garbage:b134bff0
[ 2865.931159] addr1: b13493e0  addr2: b134bff0
[ 2866.211206] 28 jiffies for addrA:b1348000 addrB:b13493e0 and garbage:b134bff0
[ 2866.211289] addr1: b13493f0  addr2: b134bff0
[ 2866.491289] 28 jiffies for addrA:b1348000 addrB:b13493f0 and garbage:b134bff0
[ 2866.491369] addr1: b1349400  addr2: b134bff0
[ 2866.774414] 29 jiffies for addrA:b1348000 addrB:b1349400 and garbage:b134bff0
[ 2866.774530] addr1: b1349410  addr2: b134bff0
[ 2867.054625] 28 jiffies for addrA:b1348000 addrB:b1349410 and garbage:b134bff0
[ 2867.054716] addr1: b1349420  addr2: b134bff0
[ 2867.334736] 28 jiffies for addrA:b1348000 addrB:b1349420 and garbage:b134bff0
[ 2867.334818] addr1: b1349430  addr2: b134bff0
[ 2867.614807] 28 jiffies for addrA:b1348000 addrB:b1349430 and garbage:b134bff0
[ 2867.614888] addr1: b1349440  addr2: b134bff0
[ 2867.894945] 28 jiffies for addrA:b1348000 addrB:b1349440 and garbage:b134bff0
[ 2867.895035] addr1: b1349450  addr2: b134bff0
[ 2868.175329] 28 jiffies for addrA:b1348000 addrB:b1349450 and garbage:b134bff0
[ 2868.175448] addr1: b1349460  addr2: b134bff0
[ 2868.455658] 28 jiffies for addrA:b1348000 addrB:b1349460 and garbage:b134bff0
[ 2868.455761] addr1: b1349470  addr2: b134bff0
[ 2868.735809] 28 jiffies for addrA:b1348000 addrB:b1349470 and garbage:b134bff0
[ 2868.735896] addr1: b1349480  addr2: b134bff0
[ 2869.015926] 28 jiffies for addrA:b1348000 addrB:b1349480 and garbage:b134bff0
[ 2869.016013] addr1: b1349490  addr2: b134bff0
[ 2869.296013] 28 jiffies for addrA:b1348000 addrB:b1349490 and garbage:b134bff0
[ 2869.296095] addr1: b13494a0  addr2: b134bff0
[ 2869.578679] 28 jiffies for addrA:b1348000 addrB:b13494a0 and garbage:b134bff0
[ 2869.578793] addr1: b13494b0  addr2: b134bff0
[ 2869.859061] 28 jiffies for addrA:b1348000 addrB:b13494b0 and garbage:b134bff0
[ 2869.859179] addr1: b13494c0  addr2: b134bff0
[ 2870.139255] 28 jiffies for addrA:b1348000 addrB:b13494c0 and garbage:b134bff0
[ 2870.139352] addr1: b13494d0  addr2: b134bff0
[ 2870.419378] 28 jiffies for addrA:b1348000 addrB:b13494d0 and garbage:b134bff0
[ 2870.419465] addr1: b13494e0  addr2: b134bff0
[ 2870.699507] 28 jiffies for addrA:b1348000 addrB:b13494e0 and garbage:b134bff0
[ 2870.699587] addr1: b13494f0  addr2: b134bff0
[ 2870.979649] 28 jiffies for addrA:b1348000 addrB:b13494f0 and garbage:b134bff0
[ 2870.979746] addr1: b1349500  addr2: b134bff0
[ 2871.260007] 28 jiffies for addrA:b1348000 addrB:b1349500 and garbage:b134bff0
[ 2871.260120] addr1: b1349510  addr2: b134bff0
[ 2871.540214] 28 jiffies for addrA:b1348000 addrB:b1349510 and garbage:b134bff0
[ 2871.540298] addr1: b1349520  addr2: b134bff0
[ 2871.820298] 28 jiffies for addrA:b1348000 addrB:b1349520 and garbage:b134bff0
[ 2871.820377] addr1: b1349530  addr2: b134bff0
[ 2872.100492] 28 jiffies for addrA:b1348000 addrB:b1349530 and garbage:b134bff0
[ 2872.100586] addr1: b1349540  addr2: b134bff0
[ 2872.380622] 28 jiffies for addrA:b1348000 addrB:b1349540 and garbage:b134bff0
[ 2872.380710] addr1: b1349550  addr2: b134bff0
[ 2872.663481] 29 jiffies for addrA:b1348000 addrB:b1349550 and garbage:b134bff0
[ 2872.663599] addr1: b1349560  addr2: b134bff0
[ 2872.943673] 28 jiffies for addrA:b1348000 addrB:b1349560 and garbage:b134bff0
[ 2872.943770] addr1: b1349570  addr2: b134bff0
[ 2873.225106] 28 jiffies for addrA:b1348000 addrB:b1349570 and garbage:b134bff0
[ 2873.225219] addr1: b1349580  addr2: b134bff0
[ 2873.505433] 28 jiffies for addrA:b1348000 addrB:b1349580 and garbage:b134bff0
[ 2873.505540] addr1: b1349590  addr2: b134bff0
[ 2873.785644] 28 jiffies for addrA:b1348000 addrB:b1349590 and garbage:b134bff0
[ 2873.785758] addr1: b13495a0  addr2: b134bff0
[ 2874.065959] 28 jiffies for addrA:b1348000 addrB:b13495a0 and garbage:b134bff0
[ 2874.066066] addr1: b13495b0  addr2: b134bff0
[ 2874.346358] 28 jiffies for addrA:b1348000 addrB:b13495b0 and garbage:b134bff0
[ 2874.346474] addr1: b13495c0  addr2: b134bff0
[ 2874.626993] 28 jiffies for addrA:b1348000 addrB:b13495c0 and garbage:b134bff0
[ 2874.627108] addr1: b13495d0  addr2: b134bff0
[ 2874.907422] 28 jiffies for addrA:b1348000 addrB:b13495d0 and garbage:b134bff0
[ 2874.907537] addr1: b13495e0  addr2: b134bff0
[ 2875.187626] 28 jiffies for addrA:b1348000 addrB:b13495e0 and garbage:b134bff0
[ 2875.187718] addr1: b13495f0  addr2: b134bff0
[ 2875.467755] 28 jiffies for addrA:b1348000 addrB:b13495f0 and garbage:b134bff0
[ 2875.467866] addr1: b1349600  addr2: b134bff0
[ 2875.750739] 28 jiffies for addrA:b1348000 addrB:b1349600 and garbage:b134bff0
[ 2875.750851] addr1: b1349610  addr2: b134bff0
[ 2876.030965] 28 jiffies for addrA:b1348000 addrB:b1349610 and garbage:b134bff0
[ 2876.031059] addr1: b1349620  addr2: b134bff0
[ 2876.311118] 28 jiffies for addrA:b1348000 addrB:b1349620 and garbage:b134bff0
[ 2876.311213] addr1: b1349630  addr2: b134bff0
[ 2876.591748] 28 jiffies for addrA:b1348000 addrB:b1349630 and garbage:b134bff0
[ 2876.591877] addr1: b1349640  addr2: b134bff0
[ 2876.872037] 29 jiffies for addrA:b1348000 addrB:b1349640 and garbage:b134bff0
[ 2876.872140] addr1: b1349650  addr2: b134bff0
[ 2877.152340] 28 jiffies for addrA:b1348000 addrB:b1349650 and garbage:b134bff0
[ 2877.152456] addr1: b1349660  addr2: b134bff0
[ 2877.432561] 28 jiffies for addrA:b1348000 addrB:b1349660 and garbage:b134bff0
[ 2877.432656] addr1: b1349670  addr2: b134bff0
[ 2877.712697] 28 jiffies for addrA:b1348000 addrB:b1349670 and garbage:b134bff0
[ 2877.712781] addr1: b1349680  addr2: b134bff0
[ 2877.992744] 28 jiffies for addrA:b1348000 addrB:b1349680 and garbage:b134bff0
[ 2877.992830] addr1: b1349690  addr2: b134bff0
[ 2878.273302] 28 jiffies for addrA:b1348000 addrB:b1349690 and garbage:b134bff0
[ 2878.273413] addr1: b13496a0  addr2: b134bff0
[ 2878.553606] 28 jiffies for addrA:b1348000 addrB:b13496a0 and garbage:b134bff0
[ 2878.553713] addr1: b13496b0  addr2: b134bff0
[ 2878.836540] 28 jiffies for addrA:b1348000 addrB:b13496b0 and garbage:b134bff0
[ 2878.836651] addr1: b13496c0  addr2: b134bff0
[ 2879.116855] 28 jiffies for addrA:b1348000 addrB:b13496c0 and garbage:b134bff0
[ 2879.116961] addr1: b13496d0  addr2: b134bff0
[ 2879.397019] 28 jiffies for addrA:b1348000 addrB:b13496d0 and garbage:b134bff0
[ 2879.397106] addr1: b13496e0  addr2: b134bff0
[ 2879.677078] 28 jiffies for addrA:b1348000 addrB:b13496e0 and garbage:b134bff0
[ 2879.677168] addr1: b13496f0  addr2: b134bff0
[ 2879.957319] 28 jiffies for addrA:b1348000 addrB:b13496f0 and garbage:b134bff0
[ 2879.957427] addr1: b1349700  addr2: b134bff0
[ 2880.237971] 28 jiffies for addrA:b1348000 addrB:b1349700 and garbage:b134bff0
[ 2880.238094] addr1: b1349710  addr2: b134bff0
[ 2880.521308] 28 jiffies for addrA:b1348000 addrB:b1349710 and garbage:b134bff0
[ 2880.521457] addr1: b1349720  addr2: b134bff0
[ 2880.802088] 29 jiffies for addrA:b1348000 addrB:b1349720 and garbage:b134bff0
[ 2880.802200] addr1: b1349730  addr2: b134bff0
[ 2881.082293] 28 jiffies for addrA:b1348000 addrB:b1349730 and garbage:b134bff0
[ 2881.082387] addr1: b1349740  addr2: b134bff0
[ 2881.362369] 28 jiffies for addrA:b1348000 addrB:b1349740 and garbage:b134bff0
[ 2881.362450] addr1: b1349750  addr2: b134bff0
[ 2881.643343] 28 jiffies for addrA:b1348000 addrB:b1349750 and garbage:b134bff0
[ 2881.643481] addr1: b1349760  addr2: b134bff0
[ 2881.925572] 28 jiffies for addrA:b1348000 addrB:b1349760 and garbage:b134bff0
[ 2881.925684] addr1: b1349770  addr2: b134bff0
[ 2882.205746] 28 jiffies for addrA:b1348000 addrB:b1349770 and garbage:b134bff0
[ 2882.205834] addr1: b1349780  addr2: b134bff0
[ 2882.485878] 28 jiffies for addrA:b1348000 addrB:b1349780 and garbage:b134bff0
[ 2882.485962] addr1: b1349790  addr2: b134bff0
[ 2882.766001] 28 jiffies for addrA:b1348000 addrB:b1349790 and garbage:b134bff0
[ 2882.766098] addr1: b13497a0  addr2: b134bff0
[ 2883.046216] 28 jiffies for addrA:b1348000 addrB:b13497a0 and garbage:b134bff0
[ 2883.046321] addr1: b13497b0  addr2: b134bff0
[ 2883.326551] 28 jiffies for addrA:b1348000 addrB:b13497b0 and garbage:b134bff0
[ 2883.326666] addr1: b13497c0  addr2: b134bff0
[ 2883.606753] 28 jiffies for addrA:b1348000 addrB:b13497c0 and garbage:b134bff0
[ 2883.606843] addr1: b13497d0  addr2: b134bff0
[ 2883.886826] 28 jiffies for addrA:b1348000 addrB:b13497d0 and garbage:b134bff0
[ 2883.886906] addr1: b13497e0  addr2: b134bff0
[ 2884.166932] 28 jiffies for addrA:b1348000 addrB:b13497e0 and garbage:b134bff0
[ 2884.167018] addr1: b13497f0  addr2: b134bff0
[ 2884.447036] 28 jiffies for addrA:b1348000 addrB:b13497f0 and garbage:b134bff0
[ 2884.447117] addr1: b1349800  addr2: b134bff0
[ 2884.729807] 28 jiffies for addrA:b1348000 addrB:b1349800 and garbage:b134bff0
[ 2884.729920] addr1: b1349810  addr2: b134bff0
[ 2885.009961] 28 jiffies for addrA:b1348000 addrB:b1349810 and garbage:b134bff0
[ 2885.010052] addr1: b1349820  addr2: b134bff0
[ 2885.290120] 28 jiffies for addrA:b1348000 addrB:b1349820 and garbage:b134bff0
[ 2885.290206] addr1: b1349830  addr2: b134bff0
[ 2885.570214] 28 jiffies for addrA:b1348000 addrB:b1349830 and garbage:b134bff0
[ 2885.570297] addr1: b1349840  addr2: b134bff0
[ 2885.850294] 28 jiffies for addrA:b1348000 addrB:b1349840 and garbage:b134bff0
[ 2885.850374] addr1: b1349850  addr2: b134bff0
[ 2886.130617] 28 jiffies for addrA:b1348000 addrB:b1349850 and garbage:b134bff0
[ 2886.130739] addr1: b1349860  addr2: b134bff0
[ 2886.410781] 28 jiffies for addrA:b1348000 addrB:b1349860 and garbage:b134bff0
[ 2886.410871] addr1: b1349870  addr2: b134bff0
[ 2886.690874] 28 jiffies for addrA:b1348000 addrB:b1349870 and garbage:b134bff0
[ 2886.690953] addr1: b1349880  addr2: b134bff0
[ 2886.970983] 28 jiffies for addrA:b1348000 addrB:b1349880 and garbage:b134bff0
[ 2886.971069] addr1: b1349890  addr2: b134bff0
[ 2887.251095] 28 jiffies for addrA:b1348000 addrB:b1349890 and garbage:b134bff0
[ 2887.251178] addr1: b13498a0  addr2: b134bff0
[ 2887.531193] 28 jiffies for addrA:b1348000 addrB:b13498a0 and garbage:b134bff0
[ 2887.531276] addr1: b13498b0  addr2: b134bff0
[ 2887.814031] 29 jiffies for addrA:b1348000 addrB:b13498b0 and garbage:b134bff0
[ 2887.814144] addr1: b13498c0  addr2: b134bff0
[ 2888.094266] 28 jiffies for addrA:b1348000 addrB:b13498c0 and garbage:b134bff0
[ 2888.094362] addr1: b13498d0  addr2: b134bff0
[ 2888.374378] 28 jiffies for addrA:b1348000 addrB:b13498d0 and garbage:b134bff0
[ 2888.374465] addr1: b13498e0  addr2: b134bff0
[ 2888.654499] 28 jiffies for addrA:b1348000 addrB:b13498e0 and garbage:b134bff0
[ 2888.654586] addr1: b13498f0  addr2: b134bff0
[ 2888.934628] 28 jiffies for addrA:b1348000 addrB:b13498f0 and garbage:b134bff0
[ 2888.934724] addr1: b1349900  addr2: b134bff0
[ 2889.214948] 28 jiffies for addrA:b1348000 addrB:b1349900 and garbage:b134bff0
[ 2889.215064] addr1: b1349910  addr2: b134bff0
[ 2889.495134] 28 jiffies for addrA:b1348000 addrB:b1349910 and garbage:b134bff0
[ 2889.495226] addr1: b1349920  addr2: b134bff0
[ 2889.775230] 28 jiffies for addrA:b1348000 addrB:b1349920 and garbage:b134bff0
[ 2889.775311] addr1: b1349930  addr2: b134bff0
[ 2890.055304] 28 jiffies for addrA:b1348000 addrB:b1349930 and garbage:b134bff0
[ 2890.055389] addr1: b1349940  addr2: b134bff0
[ 2890.335425] 28 jiffies for addrA:b1348000 addrB:b1349940 and garbage:b134bff0
[ 2890.335512] addr1: b1349950  addr2: b134bff0
[ 2890.615520] 28 jiffies for addrA:b1348000 addrB:b1349950 and garbage:b134bff0
[ 2890.615603] addr1: b1349960  addr2: b134bff0
[ 2890.898297] 28 jiffies for addrA:b1348000 addrB:b1349960 and garbage:b134bff0
[ 2890.898408] addr1: b1349970  addr2: b134bff0
[ 2891.178517] 28 jiffies for addrA:b1348000 addrB:b1349970 and garbage:b134bff0
[ 2891.178606] addr1: b1349980  addr2: b134bff0
[ 2891.458627] 28 jiffies for addrA:b1348000 addrB:b1349980 and garbage:b134bff0
[ 2891.458707] addr1: b1349990  addr2: b134bff0
[ 2891.738687] 28 jiffies for addrA:b1348000 addrB:b1349990 and garbage:b134bff0
[ 2891.738768] addr1: b13499a0  addr2: b134bff0
[ 2892.018875] 28 jiffies for addrA:b1348000 addrB:b13499a0 and garbage:b134bff0
[ 2892.018973] addr1: b13499b0  addr2: b134bff0
[ 2892.299247] 28 jiffies for addrA:b1348000 addrB:b13499b0 and garbage:b134bff0
[ 2892.299364] addr1: b13499c0  addr2: b134bff0
[ 2892.579406] 28 jiffies for addrA:b1348000 addrB:b13499c0 and garbage:b134bff0
[ 2892.579493] addr1: b13499d0  addr2: b134bff0
[ 2892.859528] 28 jiffies for addrA:b1348000 addrB:b13499d0 and garbage:b134bff0
[ 2892.859606] addr1: b13499e0  addr2: b134bff0
[ 2893.139648] 28 jiffies for addrA:b1348000 addrB:b13499e0 and garbage:b134bff0
[ 2893.139735] addr1: b13499f0  addr2: b134bff0
[ 2893.419754] 28 jiffies for addrA:b1348000 addrB:b13499f0 and garbage:b134bff0
[ 2893.419842] addr1: b1349a00  addr2: b134bff0
[ 2893.700072] 28 jiffies for addrA:b1348000 addrB:b1349a00 and garbage:b134bff0
[ 2893.700188] addr1: b1349a10  addr2: b134bff0
[ 2893.982887] 29 jiffies for addrA:b1348000 addrB:b1349a10 and garbage:b134bff0
[ 2893.982997] addr1: b1349a20  addr2: b134bff0
[ 2894.263006] 28 jiffies for addrA:b1348000 addrB:b1349a20 and garbage:b134bff0
[ 2894.263091] addr1: b1349a30  addr2: b134bff0
[ 2894.543129] 28 jiffies for addrA:b1348000 addrB:b1349a30 and garbage:b134bff0
[ 2894.543222] addr1: b1349a40  addr2: b134bff0
[ 2894.823262] 28 jiffies for addrA:b1348000 addrB:b1349a40 and garbage:b134bff0
[ 2894.823349] addr1: b1349a50  addr2: b134bff0
[ 2895.103383] 28 jiffies for addrA:b1348000 addrB:b1349a50 and garbage:b134bff0
[ 2895.103477] addr1: b1349a60  addr2: b134bff0
[ 2895.383705] 28 jiffies for addrA:b1348000 addrB:b1349a60 and garbage:b134bff0
[ 2895.383820] addr1: b1349a70  addr2: b134bff0
[ 2895.664079] 28 jiffies for addrA:b1348000 addrB:b1349a70 and garbage:b134bff0
[ 2895.664188] addr1: b1349a80  addr2: b134bff0
[ 2895.944211] 28 jiffies for addrA:b1348000 addrB:b1349a80 and garbage:b134bff0
[ 2895.944307] addr1: b1349a90  addr2: b134bff0
[ 2896.224362] 28 jiffies for addrA:b1348000 addrB:b1349a90 and garbage:b134bff0
[ 2896.224447] addr1: b1349aa0  addr2: b134bff0
[ 2896.504460] 28 jiffies for addrA:b1348000 addrB:b1349aa0 and garbage:b134bff0
[ 2896.504542] addr1: b1349ab0  addr2: b134bff0
[ 2896.784710] 28 jiffies for addrA:b1348000 addrB:b1349ab0 and garbage:b134bff0
[ 2896.784839] addr1: b1349ac0  addr2: b134bff0
[ 2897.067480] 28 jiffies for addrA:b1348000 addrB:b1349ac0 and garbage:b134bff0
[ 2897.067590] addr1: b1349ad0  addr2: b134bff0
[ 2897.347666] 28 jiffies for addrA:b1348000 addrB:b1349ad0 and garbage:b134bff0
[ 2897.347753] addr1: b1349ae0  addr2: b134bff0
[ 2897.627730] 28 jiffies for addrA:b1348000 addrB:b1349ae0 and garbage:b134bff0
[ 2897.627815] addr1: b1349af0  addr2: b134bff0
[ 2897.907859] 28 jiffies for addrA:b1348000 addrB:b1349af0 and garbage:b134bff0
[ 2897.907938] addr1: b1349b00  addr2: b134bff0
[ 2898.188300] 28 jiffies for addrA:b1348000 addrB:b1349b00 and garbage:b134bff0
[ 2898.188418] addr1: b1349b10  addr2: b134bff0
[ 2898.468440] 28 jiffies for addrA:b1348000 addrB:b1349b10 and garbage:b134bff0
[ 2898.468524] addr1: b1349b20  addr2: b134bff0
[ 2898.748639] 28 jiffies for addrA:b1348000 addrB:b1349b20 and garbage:b134bff0
[ 2898.748726] addr1: b1349b30  addr2: b134bff0
[ 2899.028786] 28 jiffies for addrA:b1348000 addrB:b1349b30 and garbage:b134bff0
[ 2899.028877] addr1: b1349b40  addr2: b134bff0
[ 2899.308871] 28 jiffies for addrA:b1348000 addrB:b1349b40 and garbage:b134bff0
[ 2899.308952] addr1: b1349b50  addr2: b134bff0
[ 2899.589111] 28 jiffies for addrA:b1348000 addrB:b1349b50 and garbage:b134bff0
[ 2899.589203] addr1: b1349b60  addr2: b134bff0
[ 2899.871973] 28 jiffies for addrA:b1348000 addrB:b1349b60 and garbage:b134bff0
[ 2899.872085] addr1: b1349b70  addr2: b134bff0
[ 2900.152150] 29 jiffies for addrA:b1348000 addrB:b1349b70 and garbage:b134bff0
[ 2900.152241] addr1: b1349b80  addr2: b134bff0
[ 2900.432282] 28 jiffies for addrA:b1348000 addrB:b1349b80 and garbage:b134bff0
[ 2900.432364] addr1: b1349b90  addr2: b134bff0
[ 2900.712403] 28 jiffies for addrA:b1348000 addrB:b1349b90 and garbage:b134bff0
[ 2900.712490] addr1: b1349ba0  addr2: b134bff0
[ 2900.992516] 28 jiffies for addrA:b1348000 addrB:b1349ba0 and garbage:b134bff0
[ 2900.992616] addr1: b1349bb0  addr2: b134bff0
[ 2901.272894] 28 jiffies for addrA:b1348000 addrB:b1349bb0 and garbage:b134bff0
[ 2901.273013] addr1: b1349bc0  addr2: b134bff0
[ 2901.553072] 28 jiffies for addrA:b1348000 addrB:b1349bc0 and garbage:b134bff0
[ 2901.553160] addr1: b1349bd0  addr2: b134bff0
[ 2901.833136] 28 jiffies for addrA:b1348000 addrB:b1349bd0 and garbage:b134bff0
[ 2901.833214] addr1: b1349be0  addr2: b134bff0
[ 2902.113284] 28 jiffies for addrA:b1348000 addrB:b1349be0 and garbage:b134bff0
[ 2902.113378] addr1: b1349bf0  addr2: b134bff0
[ 2902.393405] 28 jiffies for addrA:b1348000 addrB:b1349bf0 and garbage:b134bff0
[ 2902.393490] addr1: b1349c00  addr2: b134bff0
[ 2902.673658] 28 jiffies for addrA:b1348000 addrB:b1349c00 and garbage:b134bff0
[ 2902.673774] addr1: b1349c10  addr2: b134bff0
[ 2902.956348] 28 jiffies for addrA:b1348000 addrB:b1349c10 and garbage:b134bff0
[ 2902.956458] addr1: b1349c20  addr2: b134bff0
[ 2903.236651] 28 jiffies for addrA:b1348000 addrB:b1349c20 and garbage:b134bff0
[ 2903.236754] addr1: b1349c30  addr2: b134bff0
[ 2903.516787] 28 jiffies for addrA:b1348000 addrB:b1349c30 and garbage:b134bff0
[ 2903.516878] addr1: b1349c40  addr2: b134bff0
[ 2903.796947] 28 jiffies for addrA:b1348000 addrB:b1349c40 and garbage:b134bff0
[ 2903.797039] addr1: b1349c50  addr2: b134bff0
[ 2904.078571] 28 jiffies for addrA:b1348000 addrB:b1349c50 and garbage:b134bff0
[ 2904.078682] addr1: b1349c60  addr2: b134bff0
[ 2904.359038] 28 jiffies for addrA:b1348000 addrB:b1349c60 and garbage:b134bff0
[ 2904.359154] addr1: b1349c70  addr2: b134bff0
[ 2904.639326] 28 jiffies for addrA:b1348000 addrB:b1349c70 and garbage:b134bff0
[ 2904.639436] addr1: b1349c80  addr2: b134bff0
[ 2904.919550] 28 jiffies for addrA:b1348000 addrB:b1349c80 and garbage:b134bff0
[ 2904.919652] addr1: b1349c90  addr2: b134bff0
[ 2905.199721] 28 jiffies for addrA:b1348000 addrB:b1349c90 and garbage:b134bff0
[ 2905.199818] addr1: b1349ca0  addr2: b134bff0
[ 2905.480356] 28 jiffies for addrA:b1348000 addrB:b1349ca0 and garbage:b134bff0
[ 2905.480478] addr1: b1349cb0  addr2: b134bff0
[ 2905.760995] 28 jiffies for addrA:b1348000 addrB:b1349cb0 and garbage:b134bff0
[ 2905.761110] addr1: b1349cc0  addr2: b134bff0
[ 2906.043840] 29 jiffies for addrA:b1348000 addrB:b1349cc0 and garbage:b134bff0
[ 2906.043950] addr1: b1349cd0  addr2: b134bff0
[ 2906.324083] 28 jiffies for addrA:b1348000 addrB:b1349cd0 and garbage:b134bff0
[ 2906.324181] addr1: b1349ce0  addr2: b134bff0
[ 2906.604229] 28 jiffies for addrA:b1348000 addrB:b1349ce0 and garbage:b134bff0
[ 2906.604318] addr1: b1349cf0  addr2: b134bff0
[ 2906.884335] 28 jiffies for addrA:b1348000 addrB:b1349cf0 and garbage:b134bff0
[ 2906.884421] addr1: b1349d00  addr2: b134bff0
[ 2907.164652] 28 jiffies for addrA:b1348000 addrB:b1349d00 and garbage:b134bff0
[ 2907.164768] addr1: b1349d10  addr2: b134bff0
[ 2907.444846] 28 jiffies for addrA:b1348000 addrB:b1349d10 and garbage:b134bff0
[ 2907.444931] addr1: b1349d20  addr2: b134bff0
[ 2907.724922] 28 jiffies for addrA:b1348000 addrB:b1349d20 and garbage:b134bff0
[ 2907.724999] addr1: b1349d30  addr2: b134bff0
[ 2908.005520] 28 jiffies for addrA:b1348000 addrB:b1349d30 and garbage:b134bff0
[ 2908.005630] addr1: b1349d40  addr2: b134bff0
[ 2908.285710] 28 jiffies for addrA:b1348000 addrB:b1349d40 and garbage:b134bff0
[ 2908.285794] addr1: b1349d50  addr2: b134bff0
[ 2908.565812] 28 jiffies for addrA:b1348000 addrB:b1349d50 and garbage:b134bff0
[ 2908.565893] addr1: b1349d60  addr2: b134bff0
[ 2908.846111] 28 jiffies for addrA:b1348000 addrB:b1349d60 and garbage:b134bff0
[ 2908.846228] addr1: b1349d70  addr2: b134bff0
[ 2909.128961] 28 jiffies for addrA:b1348000 addrB:b1349d70 and garbage:b134bff0
[ 2909.129075] addr1: b1349d80  addr2: b134bff0
[ 2909.409194] 28 jiffies for addrA:b1348000 addrB:b1349d80 and garbage:b134bff0
[ 2909.409292] addr1: b1349d90  addr2: b134bff0
[ 2909.689346] 28 jiffies for addrA:b1348000 addrB:b1349d90 and garbage:b134bff0
[ 2909.689436] addr1: b1349da0  addr2: b134bff0
[ 2909.969939] 28 jiffies for addrA:b1348000 addrB:b1349da0 and garbage:b134bff0
[ 2909.970051] addr1: b1349db0  addr2: b134bff0
[ 2910.250423] 28 jiffies for addrA:b1348000 addrB:b1349db0 and garbage:b134bff0
[ 2910.250534] addr1: b1349dc0  addr2: b134bff0
[ 2910.530558] 28 jiffies for addrA:b1348000 addrB:b1349dc0 and garbage:b134bff0
[ 2910.530648] addr1: b1349dd0  addr2: b134bff0
[ 2910.810665] 28 jiffies for addrA:b1348000 addrB:b1349dd0 and garbage:b134bff0
[ 2910.810744] addr1: b1349de0  addr2: b134bff0
[ 2911.090915] 28 jiffies for addrA:b1348000 addrB:b1349de0 and garbage:b134bff0
[ 2911.091021] addr1: b1349df0  addr2: b134bff0
[ 2911.371071] 28 jiffies for addrA:b1348000 addrB:b1349df0 and garbage:b134bff0
[ 2911.371170] addr1: b1349e00  addr2: b134bff0
[ 2911.651402] 28 jiffies for addrA:b1348000 addrB:b1349e00 and garbage:b134bff0
[ 2911.651512] addr1: b1349e10  addr2: b134bff0
[ 2911.931938] 28 jiffies for addrA:b1348000 addrB:b1349e10 and garbage:b134bff0
[ 2911.932060] addr1: b1349e20  addr2: b134bff0
[ 2912.215761] 29 jiffies for addrA:b1348000 addrB:b1349e20 and garbage:b134bff0
[ 2912.215872] addr1: b1349e30  addr2: b134bff0
[ 2912.496401] 28 jiffies for addrA:b1348000 addrB:b1349e30 and garbage:b134bff0
[ 2912.496511] addr1: b1349e40  addr2: b134bff0
[ 2912.777411] 28 jiffies for addrA:b1348000 addrB:b1349e40 and garbage:b134bff0
[ 2912.777522] addr1: b1349e50  addr2: b134bff0
[ 2913.057557] 28 jiffies for addrA:b1348000 addrB:b1349e50 and garbage:b134bff0
[ 2913.057650] addr1: b1349e60  addr2: b134bff0
[ 2913.337926] 28 jiffies for addrA:b1348000 addrB:b1349e60 and garbage:b134bff0
[ 2913.338042] addr1: b1349e70  addr2: b134bff0
[ 2913.618133] 28 jiffies for addrA:b1348000 addrB:b1349e70 and garbage:b134bff0
[ 2913.618225] addr1: b1349e80  addr2: b134bff0
[ 2913.898200] 28 jiffies for addrA:b1348000 addrB:b1349e80 and garbage:b134bff0
[ 2913.898282] addr1: b1349e90  addr2: b134bff0
[ 2914.178397] 28 jiffies for addrA:b1348000 addrB:b1349e90 and garbage:b134bff0
[ 2914.178491] addr1: b1349ea0  addr2: b134bff0
[ 2914.458545] 28 jiffies for addrA:b1348000 addrB:b1349ea0 and garbage:b134bff0
[ 2914.458631] addr1: b1349eb0  addr2: b134bff0
[ 2914.738848] 28 jiffies for addrA:b1348000 addrB:b1349eb0 and garbage:b134bff0
[ 2914.738963] addr1: b1349ec0  addr2: b134bff0
[ 2915.021659] 28 jiffies for addrA:b1348000 addrB:b1349ec0 and garbage:b134bff0
[ 2915.021771] addr1: b1349ed0  addr2: b134bff0
[ 2915.301905] 28 jiffies for addrA:b1348000 addrB:b1349ed0 and garbage:b134bff0
[ 2915.301997] addr1: b1349ee0  addr2: b134bff0
[ 2915.581991] 28 jiffies for addrA:b1348000 addrB:b1349ee0 and garbage:b134bff0
[ 2915.582078] addr1: b1349ef0  addr2: b134bff0
[ 2915.862109] 28 jiffies for addrA:b1348000 addrB:b1349ef0 and garbage:b134bff0
[ 2915.862190] addr1: b1349f00  addr2: b134bff0
[ 2916.142760] 29 jiffies for addrA:b1348000 addrB:b1349f00 and garbage:b134bff0
[ 2916.142878] addr1: b1349f10  addr2: b134bff0
[ 2916.423112] 28 jiffies for addrA:b1348000 addrB:b1349f10 and garbage:b134bff0
[ 2916.423225] addr1: b1349f20  addr2: b134bff0
[ 2916.703311] 28 jiffies for addrA:b1348000 addrB:b1349f20 and garbage:b134bff0
[ 2916.703400] addr1: b1349f30  addr2: b134bff0
[ 2916.983464] 28 jiffies for addrA:b1348000 addrB:b1349f30 and garbage:b134bff0
[ 2916.983558] addr1: b1349f40  addr2: b134bff0
[ 2917.263561] 28 jiffies for addrA:b1348000 addrB:b1349f40 and garbage:b134bff0
[ 2917.263644] addr1: b1349f50  addr2: b134bff0
[ 2917.543667] 28 jiffies for addrA:b1348000 addrB:b1349f50 and garbage:b134bff0
[ 2917.543750] addr1: b1349f60  addr2: b134bff0
[ 2917.823951] 28 jiffies for addrA:b1348000 addrB:b1349f60 and garbage:b134bff0
[ 2917.824076] addr1: b1349f70  addr2: b134bff0
[ 2918.106799] 28 jiffies for addrA:b1348000 addrB:b1349f70 and garbage:b134bff0
[ 2918.106910] addr1: b1349f80  addr2: b134bff0
[ 2918.386995] 28 jiffies for addrA:b1348000 addrB:b1349f80 and garbage:b134bff0
[ 2918.387084] addr1: b1349f90  addr2: b134bff0
[ 2918.667111] 28 jiffies for addrA:b1348000 addrB:b1349f90 and garbage:b134bff0
[ 2918.667194] addr1: b1349fa0  addr2: b134bff0
[ 2918.947177] 28 jiffies for addrA:b1348000 addrB:b1349fa0 and garbage:b134bff0
[ 2918.947263] addr1: b1349fb0  addr2: b134bff0
[ 2919.227489] 28 jiffies for addrA:b1348000 addrB:b1349fb0 and garbage:b134bff0
[ 2919.227606] addr1: b1349fc0  addr2: b134bff0
[ 2919.507719] 28 jiffies for addrA:b1348000 addrB:b1349fc0 and garbage:b134bff0
[ 2919.507814] addr1: b1349fd0  addr2: b134bff0
[ 2919.787803] 28 jiffies for addrA:b1348000 addrB:b1349fd0 and garbage:b134bff0
[ 2919.787883] addr1: b1349fe0  addr2: b134bff0
[ 2920.068003] 28 jiffies for addrA:b1348000 addrB:b1349fe0 and garbage:b134bff0
[ 2920.068105] addr1: b1349ff0  addr2: b134bff0
[ 2920.348195] 28 jiffies for addrA:b1348000 addrB:b1349ff0 and garbage:b134bff0
[ 2920.348281] addr1: b134a000  addr2: b134bff0
[ 2920.627642] 28 jiffies for addrA:b1348000 addrB:b134a000 and garbage:b134bff0
[ 2920.627724] addr1: b134a010  addr2: b134bff0
[ 2920.907241] 28 jiffies for addrA:b1348000 addrB:b134a010 and garbage:b134bff0
[ 2920.907359] addr1: b134a020  addr2: b134bff0
[ 2921.189183] 28 jiffies for addrA:b1348000 addrB:b134a020 and garbage:b134bff0
[ 2921.189296] addr1: b134a030  addr2: b134bff0
[ 2921.468686] 28 jiffies for addrA:b1348000 addrB:b134a030 and garbage:b134bff0
[ 2921.468775] addr1: b134a040  addr2: b134bff0
[ 2921.748205] 28 jiffies for addrA:b1348000 addrB:b134a040 and garbage:b134bff0
[ 2921.748289] addr1: b134a050  addr2: b134bff0
[ 2922.027772] 28 jiffies for addrA:b1348000 addrB:b134a050 and garbage:b134bff0
[ 2922.027872] addr1: b134a060  addr2: b134bff0
[ 2922.307339] 28 jiffies for addrA:b1348000 addrB:b134a060 and garbage:b134bff0
[ 2922.307457] addr1: b134a070  addr2: b134bff0
[ 2922.586941] 28 jiffies for addrA:b1348000 addrB:b134a070 and garbage:b134bff0
[ 2922.587039] addr1: b134a080  addr2: b134bff0
[ 2922.866520] 28 jiffies for addrA:b1348000 addrB:b134a080 and garbage:b134bff0
[ 2922.866624] addr1: b134a090  addr2: b134bff0
[ 2923.146029] 28 jiffies for addrA:b1348000 addrB:b134a090 and garbage:b134bff0
[ 2923.146125] addr1: b134a0a0  addr2: b134bff0
[ 2923.425573] 28 jiffies for addrA:b1348000 addrB:b134a0a0 and garbage:b134bff0
[ 2923.425655] addr1: b134a0b0  addr2: b134bff0
[ 2923.705264] 28 jiffies for addrA:b1348000 addrB:b134a0b0 and garbage:b134bff0
[ 2923.705381] addr1: b134a0c0  addr2: b134bff0
[ 2923.984824] 28 jiffies for addrA:b1348000 addrB:b134a0c0 and garbage:b134bff0
[ 2923.984917] addr1: b134a0d0  addr2: b134bff0
[ 2924.266653] 28 jiffies for addrA:b1348000 addrB:b134a0d0 and garbage:b134bff0
[ 2924.266763] addr1: b134a0e0  addr2: b134bff0
[ 2924.546181] 28 jiffies for addrA:b1348000 addrB:b134a0e0 and garbage:b134bff0
[ 2924.546271] addr1: b134a0f0  addr2: b134bff0
[ 2924.825624] 28 jiffies for addrA:b1348000 addrB:b134a0f0 and garbage:b134bff0
[ 2924.825705] addr1: b134a100  addr2: b134bff0
[ 2925.105163] 28 jiffies for addrA:b1348000 addrB:b134a100 and garbage:b134bff0
[ 2925.105251] addr1: b134a110  addr2: b134bff0
[ 2925.384898] 28 jiffies for addrA:b1348000 addrB:b134a110 and garbage:b134bff0
[ 2925.385013] addr1: b134a120  addr2: b134bff0
[ 2925.664427] 28 jiffies for addrA:b1348000 addrB:b134a120 and garbage:b134bff0
[ 2925.664517] addr1: b134a130  addr2: b134bff0
[ 2925.944556] 28 jiffies for addrA:b1348000 addrB:b134a130 and garbage:b134bff0
[ 2925.944668] addr1: b134a140  addr2: b134bff0
[ 2926.224198] 28 jiffies for addrA:b1348000 addrB:b134a140 and garbage:b134bff0
[ 2926.224297] addr1: b134a150  addr2: b134bff0
[ 2926.503629] 28 jiffies for addrA:b1348000 addrB:b134a150 and garbage:b134bff0
[ 2926.503716] addr1: b134a160  addr2: b134bff0
[ 2926.783225] 28 jiffies for addrA:b1348000 addrB:b134a160 and garbage:b134bff0
[ 2926.783341] addr1: b134a170  addr2: b134bff0
[ 2927.062841] 28 jiffies for addrA:b1348000 addrB:b134a170 and garbage:b134bff0
[ 2927.062935] addr1: b134a180  addr2: b134bff0
[ 2927.344549] 28 jiffies for addrA:b1348000 addrB:b134a180 and garbage:b134bff0
[ 2927.344661] addr1: b134a190  addr2: b134bff0
[ 2927.624142] 28 jiffies for addrA:b1348000 addrB:b134a190 and garbage:b134bff0
[ 2927.624232] addr1: b134a1a0  addr2: b134bff0
[ 2927.903680] 28 jiffies for addrA:b1348000 addrB:b134a1a0 and garbage:b134bff0
[ 2927.903763] addr1: b134a1b0  addr2: b134bff0
[ 2928.183358] 28 jiffies for addrA:b1348000 addrB:b134a1b0 and garbage:b134bff0
[ 2928.183475] addr1: b134a1c0  addr2: b134bff0
[ 2928.463056] 28 jiffies for addrA:b1348000 addrB:b134a1c0 and garbage:b134bff0
[ 2928.463156] addr1: b134a1d0  addr2: b134bff0
[ 2928.742616] 28 jiffies for addrA:b1348000 addrB:b134a1d0 and garbage:b134bff0
[ 2928.742701] addr1: b134a1e0  addr2: b134bff0
[ 2929.022092] 27 jiffies for addrA:b1348000 addrB:b134a1e0 and garbage:b134bff0
[ 2929.022187] addr1: b134a1f0  addr2: b134bff0
[ 2929.301689] 28 jiffies for addrA:b1348000 addrB:b134a1f0 and garbage:b134bff0
[ 2929.301773] addr1: b134a200  addr2: b134bff0
[ 2929.581318] 28 jiffies for addrA:b1348000 addrB:b134a200 and garbage:b134bff0
[ 2929.581411] addr1: b134a210  addr2: b134bff0
