   48.529400] master PID: 1
[   48.529415] thread1 PID: 2
[   48.529565] MEM_SIZE: 131072
[   48.529700] Rowhammer mem base virtual address: bc5ad000
@@@
[   48.769055] 24 jiffies for addr1:bc5ad000 addr2:bc5ad080
[   48.958501] 19 jiffies for addr1:bc5ad000 addr2:bc5af080
[   49.148321] 19 jiffies for addr1:bc5ad000 addr2:bc5b1080
[   49.337422] 18 jiffies for addr1:bc5ad000 addr2:bc5b3080
[   49.526756] 19 jiffies for addr1:bc5ad000 addr2:bc5b5080
[   49.715896] 19 jiffies for addr1:bc5ad000 addr2:bc5b7080
[   49.905068] 19 jiffies for addr1:bc5ad000 addr2:bc5b9080
[   50.094166] 19 jiffies for addr1:bc5ad000 addr2:bc5bb080
[   50.283782] 19 jiffies for addr1:bc5ad000 addr2:bc5bd080
[   50.472840] 19 jiffies for addr1:bc5ad000 addr2:bc5bf080
[   50.662387] 19 jiffies for addr1:bc5ad000 addr2:bc5c1080
[   50.928401] 27 jiffies for addr1:bc5ad000 addr2:bc5c3080
[   51.117543] 18 jiffies for addr1:bc5ad000 addr2:bc5c5080
[   51.306626] 19 jiffies for addr1:bc5ad000 addr2:bc5c7080
[   51.572681] 27 jiffies for addr1:bc5ad000 addr2:bc5c9080
[   51.761775] 19 jiffies for addr1:bc5ad000 addr2:bc5cb080
[   51.761784] @@@
@@@
@@@
[   51.761795] Timing analysis complete, starting rowhammer
[   52.173549] 41 jiffies for addr1:bc5ad000 addr2:bc5cb080
[   52.587284] 41 jiffies for addr1:bc5ad000 addr2:bc5cb080
[   53.003845] 42 jiffies for addr1:bc5ad000 addr2:bc5cb080
[   53.417433] 41 jiffies for addr1:bc5ad000 addr2:bc5cb080
[   53.829011] 42 jiffies for addr1:bc5ad000 addr2:bc5cb080
[   54.241769] 41 jiffies for addr1:bc5ad000 addr2:bc5cb080
[   54.653427] 41 jiffies for addr1:bc5ad000 addr2:bc5cb080
[   55.072775] 42 jiffies for addr1:bc5ad000 addr2:bc5cb080
[   55.490118] 42 jiffies for addr1:bc5ad000 addr2:bc5cb080
[   56.065159] 57 jiffies for addr1:bc5ad000 addr2:bc5cb080
[   56.477420] 41 jiffies for addr1:bc5ad000 addr2:bc5cb080
[   56.905370] 43 jiffies for addr1:bc5ad000 addr2:bc5cb080
[   57.317841] 41 jiffies for addr1:bc5ad000 addr2:bc5cb080
[   57.729688] 42 jiffies for addr1:bc5ad000 addr2:bc5cb080
[   58.141453] 41 jiffies for addr1:bc5ad000 addr2:bc5cb080
[   58.553793] 41 jiffies for addr1:bc5ad000 addr2:bc5cb080
[   58.950166] 40 jiffies for addr1:bc5ad000 addr2:bc5cb080
